# Blender v2.79 (sub 0) OBJ File: 'Ruins.blend'
# www.blender.org
o Block_1_Model_Cube.075
v -0.213930 -0.114644 0.244570
v -0.213203 -0.092532 0.264091
v -0.234946 -0.093116 0.244426
v -0.213836 0.090122 0.265713
v -0.214450 0.112934 0.245090
v -0.235021 0.090101 0.244455
v -0.213683 -0.114011 -0.243619
v -0.234789 -0.093054 -0.243661
v -0.213885 -0.093214 -0.265135
v -0.214373 0.112736 -0.244309
v -0.214098 0.090384 -0.265682
v -0.234695 0.089974 -0.243624
v 0.214281 -0.114671 0.244580
v 0.235301 -0.093121 0.244431
v 0.214280 -0.093268 0.265977
v 0.213311 0.109140 0.243610
v 0.213286 0.089231 0.263431
v 0.235431 0.090128 0.244482
v 0.214039 -0.114050 -0.243634
v 0.214331 -0.093320 -0.265406
v 0.233865 -0.092561 -0.243167
v 0.215453 0.114631 -0.245048
v 0.235923 0.090320 -0.243970
v 0.214607 0.090552 -0.266113
v 0.000170 -0.112848 -0.243135
v 0.000170 -0.093283 -0.265276
v 0.000170 0.115225 -0.245380
v 0.000170 0.090736 -0.266476
v 0.000170 -0.115297 0.244853
v 0.000170 -0.093529 0.266576
v 0.000170 0.115100 0.246032
v 0.000170 0.089876 0.265103
v -0.214065 -0.114940 0.000352
v -0.234396 -0.092892 0.000352
v -0.215549 0.115477 0.000352
v -0.235205 0.090183 0.000352
v 0.213626 -0.113057 0.000352
v 0.234672 -0.092865 0.000352
v 0.215770 0.115188 0.000352
v 0.236720 0.090669 0.000352
v 0.000170 0.114143 0.000352
v 0.000170 -0.115067 0.000352
vt 0.645876 0.836136
vt 0.645910 0.811616
vt 0.673962 0.811578
vt 0.673961 0.836170
vt 0.642145 0.950335
vt 0.642176 0.971426
vt 0.617597 0.971365
vt 0.617683 0.950524
vt 0.924296 0.415044
vt 0.924411 0.436135
vt 0.896294 0.436253
vt 0.896168 0.415147
vt 0.561566 0.836196
vt 0.561679 0.860938
vt 0.533602 0.860933
vt 0.533387 0.836312
vt 0.930540 0.214919
vt 0.930644 0.193877
vt 0.958552 0.194175
vt 0.958412 0.214984
vt 0.614491 0.836096
vt 0.593388 0.836083
vt 0.593335 0.811503
vt 0.614444 0.811499
vt 0.617077 0.947242
vt 0.614388 0.949983
vt 0.616949 0.974779
vt 0.614211 0.971879
vt 0.958975 0.218251
vt 0.961724 0.215564
vt 0.959200 0.190798
vt 0.961946 0.193663
vt 0.667260 0.947063
vt 0.669978 0.949839
vt 0.666647 0.950382
vt 0.667222 0.974335
vt 0.666663 0.971189
vt 0.669978 0.971747
vt 0.952693 0.411790
vt 0.955447 0.414450
vt 0.952143 0.415034
vt 0.953026 0.439360
vt 0.952340 0.435848
vt 0.955786 0.436346
vt 0.930545 0.218394
vt 0.902396 0.218321
vt 0.902420 0.214853
vt 0.930683 0.190163
vt 0.617896 0.836100
vt 0.617828 0.860673
vt 0.614401 0.860681
vt 0.589717 0.836083
vt 0.589636 0.811417
vt 0.924303 0.411666
vt 0.924451 0.439868
vt 0.896398 0.439616
vt 0.642134 0.946740
vt 0.642190 0.975134
vt 0.589747 0.860667
vt 0.593324 0.860644
vt 0.617887 0.811526
vt 0.561484 0.811467
vt 0.533571 0.811850
vt 0.645850 0.860744
vt 0.673900 0.860761
vt 0.896116 0.411666
vt 0.902396 0.190195
vt 0.902488 0.193745
vn 0.0021 -1.0000 -0.0031
vn 0.3859 -0.9225 -0.0028
vn 0.3454 -0.8753 0.3384
vn -0.0000 -0.9212 0.3891
vn -0.0009 -0.3729 0.9279
vn 0.0039 0.3458 0.9383
vn -0.3380 0.3050 0.8903
vn -0.3320 -0.3255 0.8853
vn 0.9228 -0.3853 -0.0016
vn 0.9336 0.3584 0.0027
vn 0.8650 0.3480 0.3613
vn 0.8726 -0.3425 0.3480
vn 0.0014 1.0000 0.0028
vn -0.4249 0.9052 -0.0003
vn -0.3748 0.8471 0.3766
vn 0.0064 0.9056 0.4241
vn -0.9277 -0.3733 -0.0007
vn -0.9406 0.3395 -0.0005
vn -0.8919 0.3075 -0.3316
vn -0.8804 -0.3382 -0.3322
vn -0.0006 -0.4038 -0.9148
vn -0.0018 0.3526 -0.9358
vn 0.3587 0.3075 -0.8813
vn 0.3625 -0.3572 -0.8608
vn -0.3494 -0.8649 0.3603
vn -0.8737 -0.3316 0.3560
vn -0.8852 0.3074 0.3492
vn -0.3442 -0.8785 -0.3312
vn -0.3503 -0.3563 -0.8662
vn -0.3775 0.8532 -0.3598
vn -0.3562 0.3211 -0.8775
vn 0.3379 -0.3348 0.8796
vn 0.3381 0.8646 0.3716
vn 0.3221 0.3296 0.8874
vn 0.3512 -0.8784 -0.3240
vn 0.8840 -0.3392 -0.3215
vn 0.3756 0.8503 -0.3686
vn 0.8944 0.2993 -0.3323
vn -0.3928 -0.9196 -0.0021
vn 0.0009 -0.9307 -0.3657
vn -0.0024 0.9118 -0.4106
vn 0.4049 0.9143 0.0064
s 1
f 42/1/1 37/2/2 13/3/3 29/4/4
f 30/5/5 32/6/6 4/7/7 2/8/8
f 38/9/9 40/10/10 18/11/11 14/12/12
f 41/13/13 35/14/14 5/15/15 31/16/16
f 34/17/17 36/18/18 12/19/19 8/20/20
f 26/21/21 28/22/22 24/23/23 20/24/24
f 1/25/25 2/8/8 3/26/26
f 4/7/7 5/27/15 6/28/27
f 7/29/28 8/20/20 9/30/29
f 10/31/30 11/32/31 12/19/19
f 13/33/3 14/34/12 15/35/32
f 16/36/33 17/37/34 18/38/11
f 19/39/35 20/40/24 21/41/36
f 22/42/37 23/43/38 24/44/23
f 33/45/39 1/46/25 3/47/26 34/17/17
f 2/8/8 4/7/7 6/28/27 3/26/26
f 35/48/14 10/31/30 12/19/19 36/18/18
f 11/32/31 9/30/29 8/20/20 12/19/19
f 25/49/40 7/50/28 9/51/29 26/21/21
f 27/52/41 22/53/37 24/23/23 28/22/22
f 23/43/38 21/41/36 20/40/24 24/44/23
f 37/54/2 19/39/35 21/41/36 38/9/9
f 39/55/42 16/56/33 18/11/11 40/10/10
f 17/37/34 15/35/32 14/34/12 18/38/11
f 29/57/4 13/33/3 15/35/32 30/5/5
f 31/58/16 5/27/15 4/7/7 32/6/6
f 16/36/33 31/58/16 32/6/6 17/37/34
f 1/25/25 29/57/4 30/5/5 2/8/8
f 10/59/30 27/52/41 28/22/22 11/60/31
f 19/61/35 25/49/40 26/21/21 20/24/24
f 9/51/29 11/60/31 28/22/22 26/21/21
f 39/62/42 41/13/13 31/16/16 16/63/33
f 15/35/32 17/37/34 32/6/6 30/5/5
f 33/64/39 42/1/1 29/4/4 1/65/25
f 7/50/28 25/49/40 42/1/1 33/64/39
f 22/53/37 27/52/41 41/13/13 39/62/42
f 22/42/37 39/55/42 40/10/10 23/43/38
f 13/66/3 37/54/2 38/9/9 14/12/12
f 5/67/15 35/48/14 36/18/18 6/68/27
f 7/29/28 33/45/39 34/17/17 8/20/20
f 3/47/26 6/68/27 36/18/18 34/17/17
f 27/52/41 10/59/30 35/14/14 41/13/13
f 21/41/36 23/43/38 40/10/10 38/9/9
f 25/49/40 19/61/35 37/2/2 42/1/1
