# Blender v2.79 (sub 0) OBJ File: 'Ruins.blend'
# www.blender.org
o Slab_02_Model_Cube.078
v -0.539338 0.054200 -0.158116
v 0.402458 0.080330 -0.322181
v 0.524993 0.085987 0.156371
v -0.402484 0.059253 0.318643
v 0.389088 -0.005273 0.178392
v -0.404260 0.115523 0.159294
v 0.133616 0.103176 0.159093
v -0.134361 -0.000064 0.161950
v 0.133645 0.067150 0.319156
v -0.134182 0.061544 -0.320756
v 0.388924 0.030206 0.311705
v 0.401823 0.110922 0.155561
v 0.134380 -0.001052 0.163617
v 0.133990 0.068202 -0.321934
v 0.132195 0.003822 -0.154869
v 0.403206 0.120694 -0.157095
v -0.133606 0.005336 -0.156618
v 0.133750 0.107363 -0.157212
v -0.402104 0.110803 -0.158102
v 0.405124 0.012250 -0.156961
v 0.540964 0.085847 -0.158148
v -0.540447 0.054345 0.159328
v -0.134676 0.114218 -0.158261
v -0.402916 -0.000555 -0.151232
v -0.402234 0.058792 -0.313090
v -0.403088 -0.000467 0.158179
v -0.131065 0.120506 0.159118
v -0.133859 0.060600 0.312525
v -0.530078 0.009265 0.159014
v -0.527084 0.055558 0.306336
v -0.528156 0.111693 -0.157391
v -0.532583 0.052868 -0.306438
v -0.401444 0.006940 -0.301559
v 0.394562 0.107972 -0.318437
v 0.533494 0.087950 -0.313830
v 0.530844 0.018399 -0.157534
v 0.508433 0.110925 0.156140
v 0.509500 0.077694 0.305200
v 0.382283 -0.000714 0.290811
v -0.402638 0.094097 0.304147
v 0.133795 0.021744 -0.308248
v -0.135659 0.104705 -0.310724
v -0.134361 0.021044 0.300597
v 0.140529 0.099346 0.303554
v 0.000020 0.114628 0.159922
v 0.000124 0.000288 0.165406
v 0.000636 0.061875 0.316969
v -0.000094 0.062921 -0.321521
v 0.136803 0.103579 -0.304551
v 0.134564 0.023454 0.309671
v 0.405373 0.019873 -0.299087
v 0.388150 0.097352 0.283257
v 0.267631 0.069125 0.318488
v 0.268737 0.100074 0.157728
v 0.264044 -0.001843 0.192296
v 0.268087 0.072816 -0.322444
v -0.524876 0.015671 -0.157896
v -0.531219 0.092262 0.157996
v 0.535782 0.010144 0.154809
v 0.517564 0.117769 -0.157567
v -0.000599 0.101244 -0.158016
v -0.000630 0.003436 -0.157403
v 0.268265 0.113098 -0.155920
v 0.267851 0.010045 -0.153387
v 0.133919 -0.000987 0.000739
v 0.402471 0.127834 0.001022
v -0.401837 0.002276 0.000811
v 0.135350 0.102051 0.001299
v -0.136092 0.100854 -0.000207
v 0.403953 0.006484 0.000204
v 0.540339 0.085658 0.001057
v -0.540144 0.051894 0.000635
v -0.131234 0.018130 -0.307889
v -0.130081 0.101495 0.301644
v -0.400790 0.087753 -0.292587
v -0.400813 0.009913 0.312167
v -0.134414 -0.004267 0.001163
v -0.403090 0.117013 0.000606
v -0.268268 0.102363 -0.156539
v -0.268011 -0.002453 -0.157175
v -0.268533 0.060053 -0.294700
v -0.268147 -0.002687 0.159181
v -0.269229 0.118611 0.159276
v -0.268180 0.060048 0.315621
v -0.527135 0.012561 0.305193
v -0.519461 0.089778 0.296577
v -0.502949 0.010155 -0.288119
v -0.525316 0.096722 -0.297914
v 0.518701 0.014126 0.307336
v 0.493274 0.105845 0.244842
v 0.522268 0.022679 -0.292801
v 0.509699 0.109362 -0.288588
v 0.000543 0.016032 -0.308654
v -0.000106 0.105144 -0.304728
v -0.001676 0.022841 0.307097
v 0.010539 0.105050 0.300201
v 0.265041 0.112492 -0.315495
v 0.263090 0.014836 0.308517
v 0.269712 0.025154 -0.309731
v 0.272917 0.101132 0.300018
v -0.527217 0.010541 0.000848
v -0.502146 0.077624 -0.001412
v 0.532634 0.014752 0.000192
v 0.512629 0.112791 0.000494
v -0.001170 0.104942 0.000467
v 0.000000 0.000000 0.000000
v 0.268671 0.105369 0.000805
v 0.268235 0.001124 0.042700
v -0.264433 0.001853 -0.302783
v -0.260871 0.096619 0.299646
v -0.269124 0.076703 -0.281831
v -0.268924 0.017316 0.305737
v -0.268199 -0.004046 0.000066
v -0.265266 0.119838 0.000844
vt 0.455001 0.500820
vt 0.450397 0.500621
vt 0.451910 0.482651
vt 0.456954 0.482832
vt 0.462479 0.483431
vt 0.461107 0.501330
vt 0.460572 0.516522
vt 0.455470 0.517647
vt 0.449378 0.515885
vt 0.567202 0.523425
vt 0.568004 0.531049
vt 0.551564 0.530362
vt 0.551536 0.524554
vt 0.551359 0.519988
vt 0.566064 0.520412
vt 0.579506 0.517305
vt 0.582609 0.521217
vt 0.582093 0.529574
vt 0.582779 0.465758
vt 0.591768 0.465056
vt 0.592845 0.483440
vt 0.584468 0.483776
vt 0.579975 0.483916
vt 0.579381 0.465981
vt 0.577807 0.455583
vt 0.581282 0.448169
vt 0.588846 0.447010
vt 0.475292 0.444831
vt 0.475335 0.439565
vt 0.490112 0.439375
vt 0.490336 0.444453
vt 0.491309 0.449064
vt 0.475326 0.448784
vt 0.462048 0.449051
vt 0.461116 0.444679
vt 0.461117 0.439459
vt 0.565958 0.425043
vt 0.551611 0.426408
vt 0.552257 0.409234
vt 0.567986 0.404481
vt 0.582919 0.404631
vt 0.583040 0.422578
vt 0.580792 0.440276
vt 0.564942 0.437951
vt 0.551292 0.439685
vt 0.475019 0.465176
vt 0.490326 0.465286
vt 0.490589 0.483335
vt 0.474846 0.483223
vt 0.460462 0.464787
vt 0.536303 0.465638
vt 0.551725 0.465797
vt 0.551724 0.483750
vt 0.536453 0.483670
vt 0.520817 0.483698
vt 0.521017 0.465466
vt 0.522411 0.449509
vt 0.537162 0.449215
vt 0.552020 0.449712
vt 0.505800 0.422835
vt 0.490386 0.422420
vt 0.490398 0.404126
vt 0.505826 0.404270
vt 0.521349 0.404158
vt 0.521323 0.423226
vt 0.521138 0.439704
vt 0.505754 0.439124
vt 0.536494 0.445108
vt 0.536723 0.440004
vt 0.551476 0.445772
vt 0.521376 0.444263
vt 0.505112 0.523115
vt 0.504605 0.528038
vt 0.489632 0.526292
vt 0.489809 0.519458
vt 0.489891 0.516498
vt 0.505508 0.518617
vt 0.520471 0.518519
vt 0.520224 0.523753
vt 0.519958 0.529387
vt 0.565582 0.442347
vt 0.579797 0.447782
vt 0.565351 0.450983
vt 0.567084 0.466003
vt 0.567232 0.483835
vt 0.536768 0.423049
vt 0.536800 0.404302
vt 0.535845 0.523740
vt 0.535474 0.529455
vt 0.536432 0.519013
vt 0.536695 0.386332
vt 0.521341 0.385971
vt 0.521549 0.368405
vt 0.537006 0.368462
vt 0.552766 0.368371
vt 0.552404 0.386565
vt 0.567231 0.501909
vt 0.580334 0.502063
vt 0.551719 0.501733
vt 0.505955 0.386005
vt 0.490387 0.385983
vt 0.490751 0.369139
vt 0.506281 0.368429
vt 0.536212 0.501876
vt 0.520771 0.501797
vt 0.474830 0.501229
vt 0.490177 0.501499
vt 0.474489 0.516569
vt 0.568304 0.386284
vt 0.568488 0.369793
vt 0.582039 0.370636
vt 0.582891 0.386336
vt 0.584843 0.502211
vt 0.592845 0.502318
vt 0.591423 0.518540
vt 0.583324 0.520462
vt 0.456183 0.464566
vt 0.450923 0.464461
vt 0.452886 0.447309
vt 0.457964 0.447603
vt 0.505493 0.501681
vt 0.505434 0.483702
vt 0.474812 0.386722
vt 0.460597 0.386010
vt 0.463148 0.370936
vt 0.474890 0.369328
vt 0.474994 0.404255
vt 0.460506 0.404371
vt 0.474340 0.520369
vt 0.474690 0.526136
vt 0.463389 0.526570
vt 0.460006 0.521499
vt 0.474971 0.422290
vt 0.460382 0.422631
vt 0.506067 0.465439
vt 0.506368 0.448977
vt 0.505872 0.444028
vn -0.9995 -0.0310 -0.0026
vn -0.6008 -0.7986 -0.0350
vn -0.6258 -0.7798 -0.0142
vn -0.9903 0.1389 -0.0033
vn -0.5510 0.8343 0.0185
vn -0.5846 0.8112 0.0098
vn -0.4941 0.6997 -0.5160
vn -0.7199 -0.0571 -0.6917
vn -0.4207 -0.7672 -0.4842
vn 0.0603 0.0329 -0.9976
vn 0.0413 -0.8015 -0.5965
vn 0.0211 -0.7634 -0.6455
vn -0.0066 -0.0338 -0.9994
vn -0.0437 0.7797 -0.6247
vn 0.0247 0.7796 -0.6258
vn 0.3604 0.8595 -0.3623
vn 0.6765 0.1723 -0.7160
vn 0.5447 -0.6858 -0.4827
vn 0.9199 0.3822 0.0874
vn 0.7689 -0.6377 0.0464
vn 0.7116 -0.7024 -0.0139
vn 0.9474 0.3185 0.0293
vn 0.4514 0.8916 0.0350
vn 0.4451 0.8909 0.0906
vn 0.3575 0.8846 0.2994
vn 0.5509 0.3723 0.7469
vn 0.5893 -0.5513 0.5905
vn -0.0270 0.1227 0.9921
vn -0.0201 -0.7238 0.6897
vn 0.0368 -0.7382 0.6736
vn 0.0247 0.0772 0.9967
vn -0.0086 0.7815 0.6238
vn -0.0574 0.7825 0.6199
vn -0.5322 0.6850 0.4973
vn -0.7008 0.1067 0.7053
vn -0.5669 -0.6154 0.5476
vn 0.0326 -0.9994 0.0096
vn -0.0315 -0.9979 0.0558
vn 0.0132 -0.9994 -0.0327
vn 0.0414 -0.9983 -0.0405
vn 0.0192 -0.8202 0.5717
vn -0.0276 -0.7414 0.6704
vn -0.1061 0.9933 0.0461
vn -0.0007 0.9980 0.0620
vn 0.0228 0.9991 -0.0346
vn -0.1096 0.9939 -0.0084
vn -0.6237 0.7816 0.0013
vn 0.0310 0.9995 0.0080
vn -0.0356 0.9987 0.0344
vn -0.0673 0.9972 0.0318
vn 0.0016 1.0000 0.0066
vn 0.0202 0.9995 -0.0226
vn 0.0328 0.9994 0.0054
vn 0.0128 0.8119 0.5837
vn 0.0169 0.8338 0.5518
vn 0.0511 0.8350 0.5478
vn 0.0133 -0.9965 0.0820
vn 0.0057 -0.9979 0.0638
vn -0.0063 -0.9999 -0.0046
vn 0.0157 -0.9998 -0.0112
vn 0.0037 -0.9999 -0.0134
vn 0.0018 -0.9965 0.0836
vn -0.0153 -0.7356 0.6772
vn 0.0078 -0.7533 0.6576
vn -0.0066 0.1169 0.9931
vn -0.0196 -0.7169 0.6969
vn 0.0543 0.1309 0.9899
vn -0.0214 0.0519 0.9984
vn -0.0836 0.0825 -0.9931
vn -0.0169 -0.7269 -0.6865
vn 0.0055 -0.7248 -0.6889
vn -0.0440 0.2307 -0.9720
vn -0.0556 0.8259 -0.5610
vn -0.0923 0.7837 -0.6142
vn 0.0125 0.8242 -0.5662
vn 0.0041 0.0376 -0.9993
vn 0.0041 -0.7731 -0.6343
vn 0.0415 0.0704 0.9966
vn 0.0255 0.8572 0.5144
vn -0.0265 0.9975 0.0658
vn -0.0214 0.9992 0.0321
vn -0.0121 -0.9974 0.0710
vn 0.0100 -0.9997 -0.0200
vn -0.0128 0.0463 -0.9988
vn 0.0216 -0.7650 -0.6436
vn -0.0427 0.8232 -0.5661
vn 0.0234 -0.9974 -0.0675
vn 0.0038 -0.9980 -0.0630
vn 0.0212 -0.9976 -0.0654
vn -0.0064 0.9995 -0.0297
vn 0.4346 0.9001 -0.0289
vn -0.0534 0.9986 -0.0029
vn 0.0277 -0.9981 -0.0540
vn 0.0145 -0.9994 -0.0321
vn -0.0296 0.9995 0.0081
vn 0.0127 0.9999 0.0043
vn -0.0061 0.9972 -0.0747
vn -0.0083 0.9950 -0.0993
vn 0.0645 0.8153 -0.5754
vn 0.0264 -0.9985 -0.0480
vn 0.6749 -0.7366 -0.0439
vn 0.9589 0.2826 -0.0259
vn -0.9927 0.1202 0.0081
vn -0.6598 -0.7510 0.0255
vn -0.0136 0.9994 -0.0313
vn 0.0328 0.9989 -0.0328
vn -0.0609 -0.9980 -0.0142
vn -0.0391 -0.7465 -0.6641
vn -0.0579 -0.9983 -0.0054
vn 0.0236 0.1588 -0.9870
vn -0.0332 -0.9989 0.0319
vn 0.0131 0.9996 0.0235
vn -0.0108 0.7742 0.6329
vn -0.0056 0.0310 0.9995
s 1
f 1/1/1 57/2/2 101/3/3 72/4/4
f 1/1/1 72/4/4 102/5/5 31/6/6
f 1/1/1 31/6/6 88/7/7 32/8/8
f 1/1/1 32/8/8 87/9/9 57/2/2
f 2/10/10 51/11/11 99/12/12 56/13/13
f 2/10/10 56/13/13 97/14/14 34/15/15
f 2/10/10 34/15/15 92/16/16 35/17/17
f 2/10/10 35/17/17 91/18/18 51/11/11
f 3/19/19 59/20/20 103/21/21 71/22/22
f 3/19/19 71/22/22 104/23/23 37/24/24
f 3/19/19 37/24/24 90/25/25 38/26/26
f 3/19/19 38/26/26 89/27/27 59/20/20
f 4/28/28 76/29/29 112/30/30 84/31/31
f 4/28/28 84/31/31 110/32/32 40/33/33
f 4/28/28 40/33/33 86/34/34 30/35/35
f 4/28/28 30/35/35 85/36/36 76/29/29
f 5/37/37 55/38/38 108/39/39 70/40/40
f 5/37/37 70/40/40 103/41/21 59/42/20
f 5/37/37 59/42/20 89/43/27 39/44/41
f 5/37/37 39/44/41 98/45/42 55/38/38
f 6/46/43 83/47/44 114/48/45 78/49/46
f 6/46/43 78/49/46 102/5/5 58/50/47
f 6/46/43 58/50/47 86/34/34 40/33/33
f 6/46/43 40/33/33 110/32/32 83/47/44
f 7/51/48 54/52/49 107/53/50 68/54/51
f 7/51/48 68/54/51 105/55/52 45/56/53
f 7/51/48 45/56/53 96/57/54 44/58/55
f 7/51/48 44/58/55 100/59/56 54/52/49
f 8/60/57 82/61/58 113/62/59 77/63/60
f 8/60/57 77/63/60 106/64/61 46/65/62
f 8/60/57 46/65/62 95/66/63 43/67/64
f 8/60/57 43/67/64 112/30/30 82/61/58
f 9/68/65 50/69/66 98/45/42 53/70/67
f 9/68/65 53/70/67 100/59/56 44/58/55
f 9/68/65 44/58/55 96/57/54 47/71/68
f 9/68/65 47/71/68 95/66/63 50/69/66
f 10/72/69 73/73/70 109/74/71 81/75/72
f 10/72/69 81/75/72 111/76/73 42/77/74
f 10/72/69 42/77/74 94/78/75 48/79/76
f 10/72/69 48/79/76 93/80/77 73/73/70
f 11/81/78 39/44/41 89/43/27 38/82/26
f 11/81/78 38/82/26 90/25/25 52/83/79
f 11/81/78 52/83/79 100/59/56 53/70/67
f 11/81/78 53/70/67 98/45/42 39/44/41
f 12/84/80 37/24/24 104/23/23 66/85/81
f 12/84/80 66/85/81 107/53/50 54/52/49
f 12/84/80 54/52/49 100/59/56 52/83/79
f 12/84/80 52/83/79 90/25/25 37/24/24
f 13/86/82 46/65/62 106/64/61 65/87/83
f 13/86/82 65/87/83 108/39/39 55/38/38
f 13/86/82 55/38/38 98/45/42 50/69/66
f 13/86/82 50/69/66 95/66/63 46/65/62
f 14/88/84 41/89/85 93/80/77 48/79/76
f 14/88/84 48/79/76 94/78/75 49/90/86
f 14/88/84 49/90/86 97/14/14 56/13/13
f 14/88/84 56/13/13 99/12/12 41/89/85
f 15/91/87 62/92/88 93/93/77 41/94/85
f 15/91/87 41/94/85 99/95/12 64/96/89
f 15/91/87 64/96/89 108/39/39 65/87/83
f 15/91/87 65/87/83 106/64/61 62/92/88
f 16/97/90 60/98/91 92/16/16 34/15/15
f 16/97/90 34/15/15 97/14/14 63/99/92
f 16/97/90 63/99/92 107/53/50 66/85/81
f 16/97/90 66/85/81 104/23/23 60/98/91
f 17/100/93 80/101/94 109/102/71 73/103/70
f 17/100/93 73/103/70 93/93/77 62/92/88
f 17/100/93 62/92/88 106/64/61 77/63/60
f 17/100/93 77/63/60 113/62/59 80/101/94
f 18/104/95 63/99/92 97/14/14 49/90/86
f 18/104/95 49/90/86 94/78/75 61/105/96
f 18/104/95 61/105/96 105/55/52 68/54/51
f 18/104/95 68/54/51 107/53/50 63/99/92
f 19/106/97 79/107/98 111/76/73 75/108/99
f 19/106/97 75/108/99 88/7/7 31/6/6
f 19/106/97 31/6/6 102/5/5 78/49/46
f 19/106/97 78/49/46 114/48/45 79/107/98
f 20/109/100 64/96/89 99/95/12 51/110/11
f 20/109/100 51/110/11 91/111/18 36/112/101
f 20/109/100 36/112/101 103/41/21 70/40/40
f 20/109/100 70/40/40 108/39/39 64/96/89
f 21/113/102 36/114/101 91/115/18 35/116/17
f 21/113/102 35/116/17 92/16/16 60/98/91
f 21/113/102 60/98/91 104/23/23 71/22/22
f 21/113/102 71/22/22 103/21/21 36/114/101
f 22/117/103 29/118/104 85/119/36 30/120/35
f 22/117/103 30/120/35 86/34/34 58/50/47
f 22/117/103 58/50/47 102/5/5 72/4/4
f 22/117/103 72/4/4 101/3/3 29/118/104
f 23/121/105 61/105/96 94/78/75 42/77/74
f 23/121/105 42/77/74 111/76/73 79/107/98
f 23/121/105 79/107/98 114/48/45 69/122/106
f 23/121/105 69/122/106 105/55/52 61/105/96
f 24/123/107 57/124/2 87/125/9 33/126/108
f 24/123/107 33/126/108 109/102/71 80/101/94
f 24/123/107 80/101/94 113/62/59 67/127/109
f 24/123/107 67/127/109 101/128/3 57/124/2
f 25/129/110 33/130/108 87/131/9 32/132/8
f 25/129/110 32/132/8 88/7/7 75/108/99
f 25/129/110 75/108/99 111/76/73 81/75/72
f 25/129/110 81/75/72 109/74/71 33/130/108
f 26/133/111 29/134/104 101/128/3 67/127/109
f 26/133/111 67/127/109 113/62/59 82/61/58
f 26/133/111 82/61/58 112/30/30 76/29/29
f 26/133/111 76/29/29 85/36/36 29/134/104
f 27/135/112 45/56/53 105/55/52 69/122/106
f 27/135/112 69/122/106 114/48/45 83/47/44
f 27/135/112 83/47/44 110/32/32 74/136/113
f 27/135/112 74/136/113 96/57/54 45/56/53
f 28/137/114 43/67/64 95/66/63 47/71/68
f 28/137/114 47/71/68 96/57/54 74/136/113
f 28/137/114 74/136/113 110/32/32 84/31/31
f 28/137/114 84/31/31 112/30/30 43/67/64
